{
"type": "FeatureCollection",
"name": "fdcarte_eur",
"crs": { "type": "name", "properties": { "name": "urn:ogc:def:crs:OGC:1.3:CRS84" } },
"features": [
{ "type": "Feature", "properties": { "ID": "5", "NAME_EN": "Norway", "NAME_FR": "Norvège", "UE28": "false" }, "geometry": { "type": "MultiPolygon", "coordinates": [ [ [ [ 5.879458659199992, 59.749185946671474 ], [ 10.354170068093662, 59.493854329056383 ], [ 10.533917211816137, 59.275865293908531 ], [ 10.338175096549005, 59.200627972212253 ], [ 10.310554780285667, 59.051700618006869 ], [ 9.902342565751548, 58.959917348104064 ], [ 9.750277929266236, 59.043697911572728 ], [ 9.682534798328504, 59.008343322200005 ], [ 9.709022346333381, 58.967770010595252 ], [ 9.324520397231545, 58.85806447233 ], [ 9.455260516495898, 58.823433988127917 ], [ 9.060910882657646, 58.585638940947319 ], [ 8.14640392570967, 58.102180201560003 ], [ 7.902512721572482, 58.085050833941786 ], [ 7.570450049686095, 58.017142377124983 ], [ 7.161431170044374, 58.038916647546323 ], [ 7.058327819791359, 57.990627013625016 ], [ 6.83678873229186, 58.080440649246029 ], [ 6.737871855260074, 58.045548766102414 ], [ 6.523148886432561, 58.105215937191375 ], [ 6.72178126815352, 58.224053117049159 ], [ 6.406746570167345, 58.262109609738268 ], [ 6.013634479409825, 58.383947099791371 ], [ 5.956492434772296, 58.479890196146101 ], [ 5.832385911540965, 58.481555578313724 ], [ 5.666361916449525, 58.530605830242145 ], [ 5.477925742036944, 58.752384752792139 ], [ 5.558026535708072, 59.026371500742897 ], [ 6.028260826682151, 58.902426553982821 ], [ 5.886398923566045, 59.088146182601378 ], [ 6.156797949673949, 59.25601134685256 ], [ 5.922580306050944, 59.363253629376146 ], [ 5.794314310458597, 59.329568674690606 ], [ 5.474011491629209, 59.270605375446102 ], [ 5.283464103730306, 59.351100170196588 ], [ 5.193160917271986, 59.467453967138319 ], [ 5.262380225025612, 59.592008762002337 ], [ 5.468563164509757, 59.726460467425433 ], [ 5.613748847960838, 59.679518199047919 ], [ 5.879458659199992, 59.749185946671474 ] ] ], [ [ [ 10.677756131431305, 59.469636099998091 ], [ 11.798514021525094, 59.379651097937028 ], [ 11.816245050268899, 59.344745246659073 ], [ 11.826092051054095, 59.237869247247112 ], [ 11.775392550425916, 59.086593747118592 ], [ 11.192560550129322, 59.078670746870877 ], [ 11.203022279395487, 59.114522045186973 ], [ 10.810648002670572, 59.16344371553496 ], [ 10.677756131431305, 59.469636099998091 ] ] ] ] } },
{ "type": "Feature", "properties": { "ID": "12", "NAME_EN": "Tunisia", "NAME_FR": "Tunisie", "UE28": "false" }, "geometry": { "type": "MultiPolygon", "coordinates": [ [ [ [ 10.593310466441249, 35.949103320322614 ], [ 8.260108033024828, 36.181691444771296 ], [ 8.217824334352319, 36.433176979634489 ], [ 8.420964389691674, 36.946427305421508 ], [ 9.509993523810611, 37.349994403611539 ], [ 10.210002475636315, 37.230001727768467 ], [ 10.180650262094533, 36.724037778939149 ], [ 11.028867221733352, 37.092103168127018 ], [ 11.100025668999255, 36.899996030983452 ], [ 10.600004510143098, 36.410000099739619 ], [ 10.593310466441249, 35.949103320322614 ] ] ] ] } },
{ "type": "Feature", "properties": { "ID": "13", "NAME_EN": "Algeria", "NAME_FR": "Algérie", "UE28": "false" }, "geometry": { "type": "MultiPolygon", "coordinates": [ [ [ [ 8.260108033024828, 36.181691444771296 ], [ 1.206205507325362, 36.524461723291509 ], [ 1.466918572606548, 36.605647072497497 ], [ 3.161698846050828, 36.783904925780043 ], [ 4.81575809084913, 36.865036924520012 ], [ 5.320120070017792, 36.716518858036792 ], [ 6.261819695672614, 37.110655007329314 ], [ 7.330384962603971, 37.118380633960903 ], [ 7.737078484741005, 36.885707497447399 ], [ 8.420964389691674, 36.946427305421508 ], [ 8.217824334352319, 36.433176979634489 ], [ 8.260108033024828, 36.181691444771296 ] ] ] ] } },
{ "type": "Feature", "properties": { "ID": "19", "NAME_EN": "Sweden", "NAME_FR": "Suède", "UE28": "true" }, "geometry": { "type": "MultiPolygon", "coordinates": [ [ [ [ 11.798514021525094, 59.379651097937028 ], [ 12.53016804832826, 59.315758243730102 ], [ 12.513230042174753, 56.861645861806686 ], [ 12.359849550116682, 56.927501246232815 ], [ 12.202527550006492, 57.179244746156279 ], [ 12.093919049824363, 57.234570246141224 ], [ 12.159638218141291, 57.325121456803572 ], [ 12.108001049908571, 57.434753746156531 ], [ 11.922900550320204, 57.562222746479847 ], [ 11.81713504994263, 57.781198746171739 ], [ 11.673720549963438, 57.84875474629596 ], [ 11.81427755036872, 57.993114746741092 ], [ 11.874326549630613, 58.236969746201858 ], [ 11.825677549978986, 58.300842246430861 ], [ 11.49289105038172, 58.290991246305232 ], [ 11.224311050214846, 58.419798746298071 ], [ 11.280690050205694, 58.496741246709838 ], [ 11.256905049628411, 58.677687746327734 ], [ 11.169957050077871, 58.729771747014162 ], [ 11.248908549589945, 58.810496246466151 ], [ 11.113543550294647, 58.998263246749474 ], [ 11.192560550129322, 59.078670746870877 ], [ 11.775392550425916, 59.086593747118592 ], [ 11.826092050207981, 59.237869247211435 ], [ 11.816245050268899, 59.344745246659073 ], [ 11.798514021525094, 59.379651097937028 ] ] ] ] } },
{ "type": "Feature", "properties": { "ID": "23", "NAME_EN": "Austria", "NAME_FR": "Autriche", "UE28": "true" }, "geometry": { "type": "MultiPolygon", "coordinates": [ [ [ [ 12.493241013140011, 47.660415916563451 ], [ 12.494101527848198, 46.677575830941251 ], [ 12.478720549613744, 46.680301242038894 ], [ 12.378199550069217, 46.722599242019989 ], [ 12.306200050092285, 46.83399924150477 ], [ 12.121800549555752, 47.007198241852834 ], [ 12.241108050296369, 47.069230241770342 ], [ 12.136599523762778, 47.08000173447769 ], [ 11.837400050072286, 46.993801241872525 ], [ 11.189600050302145, 46.971401242197523 ], [ 10.996800506764158, 46.767600744907483 ], [ 10.755399550448933, 46.785400242327967 ], [ 10.667000049612634, 46.876201241555073 ], [ 10.469754050209293, 46.855026241714697 ], [ 10.241296550395539, 46.919620241970414 ], [ 10.144762050328383, 46.851719242094156 ], [ 9.876113049677544, 46.934627242452969 ], [ 9.888762550251561, 47.000728242057917 ], [ 9.607039550135195, 47.060771742004917 ], [ 9.485679550071209, 47.18118274245063 ], [ 9.529959549693512, 47.270942742232769 ], [ 9.73038204989172, 47.533783242289282 ], [ 9.826114049823612, 47.56000174268928 ], [ 10.045017049697153, 47.487808742736689 ], [ 10.178269549600087, 47.270126242350663 ], [ 10.330293550007351, 47.304774742101351 ], [ 10.475964549724264, 47.432742742106321 ], [ 10.454376049714993, 47.555751742749052 ], [ 10.598266550061288, 47.569671742565966 ], [ 10.777617549810147, 47.514301742305769 ], [ 10.886301534795271, 47.536781738961615 ], [ 10.991231566461737, 47.396171742820975 ], [ 11.269929050385432, 47.397376742542612 ], [ 11.448645549652447, 47.507072742582629 ], [ 11.57235805028386, 47.514526242766195 ], [ 11.605208549834741, 47.580329742139618 ], [ 12.008504549945091, 47.624938742572681 ], [ 12.129158049804234, 47.605788742588167 ], [ 12.263191049727206, 47.678280242816086 ], [ 12.40048104966076, 47.692196242448453 ], [ 12.493241013140011, 47.660415916563451 ] ] ] ] } },
{ "type": "Feature", "properties": { "ID": "30", "NAME_EN": "Germany", "NAME_FR": "Allemagne", "UE28": "true" }, "geometry": { "type": "MultiPolygon", "coordinates": [ [ [ [ 12.501791871326741, 54.343120408824184 ], [ 12.493452312134036, 50.379845973789386 ], [ 12.329077050165781, 50.225339743843548 ], [ 12.100199049846314, 50.318327744085991 ], [ 12.260799050036166, 50.058156743963416 ], [ 12.493162827204673, 49.974253535746897 ], [ 12.493092467281032, 49.848861747123308 ], [ 12.404265049692352, 49.762312243587175 ], [ 12.493019982216145, 49.698816433164801 ], [ 12.493241013140011, 47.660415916563451 ], [ 12.40048104966076, 47.692196242448453 ], [ 12.263191049727206, 47.678280242816086 ], [ 12.129158049804234, 47.605788742588167 ], [ 12.008504549945091, 47.624938742572681 ], [ 11.605208549834741, 47.580329742139618 ], [ 11.57235805028386, 47.514526242766195 ], [ 11.448645549652447, 47.507072742582629 ], [ 11.269929050385432, 47.397376742542612 ], [ 10.991231550395799, 47.396171742730921 ], [ 10.886301549876697, 47.536781742072137 ], [ 10.777617549810147, 47.514301742305769 ], [ 10.598266569533079, 47.569671736576993 ], [ 10.454376049714993, 47.555751742749052 ], [ 10.475964549724264, 47.432742742106321 ], [ 10.330293550007351, 47.304774742101351 ], [ 10.178269549600087, 47.270126242350663 ], [ 10.045017049697153, 47.487808742736689 ], [ 9.826114049823612, 47.56000174268928 ], [ 9.73038204989172, 47.533783242289282 ], [ 9.602699449819799, 47.584157492392556 ], [ 9.495296950393994, 47.650140492849047 ], [ 9.353476950201122, 47.660664492538409 ], [ 9.07066895041179, 47.807430992503598 ], [ 9.020956050081683, 47.686572742120624 ], [ 8.895463050079737, 47.64793724286762 ], [ 8.613831549686326, 47.801078742743186 ], [ 8.088909049812854, 47.557659242581494 ], [ 7.89410504970834, 47.586373242051039 ], [ 7.676305050337874, 47.533351742175356 ], [ 7.589039037770395, 47.589878232922615 ], [ 7.519248549880724, 47.669346242706467 ], [ 7.55708054982756, 47.879001242514697 ], [ 7.621824549763231, 47.972327743089323 ], [ 7.577888049793728, 48.121406242652704 ], [ 7.744440550191311, 48.327319242560762 ], [ 7.731861550170438, 48.392558742901912 ], [ 7.841902049839803, 48.643649743397624 ], [ 7.959440549941462, 48.718414743245461 ], [ 8.103660550194261, 48.820266743073553 ], [ 8.232571550436775, 48.966506743032163 ], [ 7.966765549590495, 49.041588243085322 ], [ 7.635655549963697, 49.053971243067764 ], [ 7.436003550223691, 49.180053243321694 ], [ 7.36875805004405, 49.161491243475062 ], [ 7.293165549850294, 49.114948742913299 ], [ 7.072020550008399, 49.124408742997488 ], [ 6.975182050311449, 49.209442243340177 ], [ 6.731471550371793, 49.205940743743767 ], [ 6.589081049950554, 49.32217774324522 ], [ 6.534370050437535, 49.435600243355033 ], [ 6.367102550342454, 49.469482743750291 ], [ 6.38004104932662, 49.551139740637026 ], [ 6.506687549990486, 49.713420743518881 ], [ 6.487385550203045, 49.812393243651435 ], [ 6.233855049770801, 49.900058743959598 ], [ 6.119548550325367, 50.056480744015097 ], [ 6.137662550186576, 50.129951243516444 ], [ 6.208781550028565, 50.253600744002739 ], [ 6.404276049600071, 50.323828244136806 ], [ 6.375121549619854, 50.451526744285623 ], [ 6.226583549890965, 50.49434624402673 ], [ 6.190897049958951, 50.639762743769175 ], [ 6.020999049966236, 50.754295243799007 ], [ 6.081700549640694, 50.910026244358093 ], [ 5.980933050419996, 50.983047743834938 ], [ 5.979560050056308, 51.071208744505626 ], [ 6.17698554964346, 51.185109744189532 ], [ 6.10570155028637, 51.171943744072685 ], [ 6.073418549926201, 51.182933744565851 ], [ 6.072570050367574, 51.242587744525224 ], [ 6.226499549614574, 51.399696244753486 ], [ 6.214883049912888, 51.434295744935724 ], [ 6.212207011010324, 51.513632615895091 ], [ 6.036699550044266, 51.672881744285554 ], [ 6.032620049875447, 51.683849244640257 ], [ 6.026186549969345, 51.709034245038694 ], [ 6.03558254979487, 51.717734744271198 ], [ 5.994984049973993, 51.738094244270975 ], [ 5.953360549649689, 51.748100744375179 ], [ 5.96255755019081, 51.837001744994261 ], [ 6.001163069642352, 51.832317252636734 ], [ 6.136904550304791, 51.885864244619867 ], [ 6.117670050032816, 51.901840244818935 ], [ 6.1259560499318, 51.898330244830952 ], [ 6.167465050371847, 51.900947745029455 ], [ 6.348163550207741, 51.850532244832699 ], [ 6.363350549987958, 51.83546024495341 ], [ 6.407500049887459, 51.828140244632422 ], [ 6.828495049606892, 51.964111744975057 ], [ 6.760448050237357, 52.118579744838406 ], [ 6.855176049734954, 52.120357244970677 ], [ 7.065755549778824, 52.241283244855858 ], [ 7.058575549621992, 52.399162244636564 ], [ 6.697861049947564, 52.486274244590547 ], [ 6.70986904971693, 52.627815744587338 ], [ 7.055564550163923, 52.643757244993573 ], [ 7.092395549814798, 52.838199744691408 ], [ 7.212242050230488, 53.011455244899231 ], [ 7.209258050218867, 53.243786245361896 ], [ 6.997709449731361, 53.369925995557857 ], [ 7.089046450233528, 53.579504495381705 ], [ 7.242133450198592, 53.670061495019894 ], [ 7.515836450092134, 53.671460995706767 ], [ 8.010950450403017, 53.712881995700677 ], [ 8.552385950051592, 53.516146995510269 ], [ 8.559582950093098, 53.509617495671364 ], [ 8.481573949977879, 53.69325499530791 ], [ 8.565851949607865, 53.845168995192452 ], [ 8.702085450283343, 53.880397995622744 ], [ 8.891447950362641, 53.829069495594602 ], [ 9.277239449940735, 53.856805495820502 ], [ 9.541003450149166, 53.613235995102791 ], [ 9.701396099085285, 53.564866780004188 ], [ 9.706039763784005, 53.573724980944021 ], [ 9.556888449742186, 53.620834495675851 ], [ 9.394457449651604, 53.817239495036411 ], [ 9.22297894961889, 53.888055995342356 ], [ 8.980738950042564, 53.891371995376893 ], [ 8.905891950053501, 53.934766995570939 ], [ 8.984978450395197, 54.060645995430015 ], [ 8.80574244965435, 54.175834495118465 ], [ 8.843874449945931, 54.256616495434592 ], [ 8.634936450057186, 54.337315995543179 ], [ 8.657957449576717, 54.39688499607179 ], [ 8.820305450336324, 54.414797495639839 ], [ 8.892393449897829, 54.597899995779393 ], [ 8.75423944969088, 54.681681995945254 ], [ 8.604969950402962, 54.8405034960075 ], [ 8.635560049856453, 54.91165124539873 ], [ 8.947847550224303, 54.902541746191844 ], [ 9.420411050229866, 54.831927745334447 ], [ 9.565244950194376, 54.854891995841399 ], [ 9.833961950383754, 54.759646495831781 ], [ 10.026516450174098, 54.5499774954408 ], [ 10.226828449773169, 54.414153995642103 ], [ 10.333755449754275, 54.435320996005792 ], [ 10.692328449598332, 54.307506995947719 ], [ 10.948232949790846, 54.384743995560989 ], [ 11.071897450007381, 54.342457495225311 ], [ 11.09351445043159, 54.197491495595926 ], [ 10.905765950138521, 53.957102495861754 ], [ 11.033653949969846, 54.005133995831976 ], [ 11.236879949949754, 53.982074995451541 ], [ 11.56134744992494, 54.027694995729931 ], [ 11.684824949611764, 54.15379849514968 ], [ 12.102448450335762, 54.178245495686561 ], [ 12.382972950041681, 54.310742495867103 ], [ 12.501791871326741, 54.343120408824184 ] ] ] ] } },
{ "type": "Feature", "properties": { "ID": "38", "NAME_EN": "Switzerland", "NAME_FR": "Suisse", "UE28": "false" }, "geometry": { "type": "MultiPolygon", "coordinates": [ [ [ [ 9.73038204989172, 47.533783242289282 ], [ 9.529959549693512, 47.270942742232769 ], [ 9.485679550071209, 47.18118274245063 ], [ 9.607039550135195, 47.060771742004917 ], [ 9.888762549519905, 47.000728238239589 ], [ 9.876113049677544, 46.934627242452969 ], [ 10.144762050328383, 46.851719242094156 ], [ 10.241296550395539, 46.919620241970414 ], [ 10.469754050209293, 46.855026241714697 ], [ 10.402252049892239, 46.636813742061406 ], [ 10.492018049893147, 46.615345242175522 ], [ 10.45314804974276, 46.531921241402024 ], [ 9.832716550328595, 46.361248241526212 ], [ 9.714438531334952, 46.292915742637277 ], [ 9.549526049987263, 46.302379741804117 ], [ 9.461172050349889, 46.375858741710715 ], [ 9.29919704714324, 46.32750673491168 ], [ 9.261677549779176, 46.233257241353179 ], [ 9.017415049564933, 46.049995741007081 ], [ 8.714921050266295, 46.097301241688619 ], [ 8.611781049555821, 46.12170774126605 ], [ 8.42773601990649, 46.298309226113972 ], [ 8.034332550207072, 46.100837241078025 ], [ 7.988935050312364, 45.99617724124527 ], [ 7.863569549894859, 45.916705741079369 ], [ 7.575359050080126, 45.987404241365006 ], [ 7.382956550104776, 45.89651074146547 ], [ 7.294503606776481, 45.921799225160846 ], [ 7.117611549833216, 45.859543240889451 ], [ 7.044000069199081, 45.923007724834839 ], [ 6.949742049855788, 46.05173124100164 ], [ 6.797889050139593, 46.136799241149404 ], [ 6.864808049651798, 46.28059374166525 ], [ 6.718472049845281, 46.407993241540105 ], [ 6.303731049848126, 46.366264741740991 ], [ 6.266508050106494, 46.247699241861142 ], [ 6.135542050425332, 46.141158741643039 ], [ 5.956067063868669, 46.132095742572965 ], [ 6.138619050229011, 46.339313241710649 ], [ 6.064003050100725, 46.416228741813796 ], [ 6.138106049954273, 46.557666741574224 ], [ 6.269439050371947, 46.682720242077309 ], [ 6.429786049686474, 46.756549741958388 ], [ 6.464458093948141, 46.890415270524464 ], [ 6.719197050003918, 47.051517242403321 ], [ 6.955139049627459, 47.243168242021845 ], [ 6.939186049596573, 47.433704242380031 ], [ 6.985869050316467, 47.492168742353712 ], [ 7.130353050153195, 47.503040742803108 ], [ 7.245017049896999, 47.426845242632623 ], [ 7.40298305002778, 47.435512242120538 ], [ 7.589039043691419, 47.589878237815554 ], [ 7.676305050337874, 47.533351742175356 ], [ 7.89410504970834, 47.586373242051039 ], [ 8.08890907256443, 47.557659253236714 ], [ 8.613831549686326, 47.801078742743186 ], [ 8.895463050079737, 47.64793724286762 ], [ 9.020956050081683, 47.686572742120624 ], [ 9.07066895041179, 47.807430992503598 ], [ 9.353476950201122, 47.660664492538409 ], [ 9.495296950393994, 47.650140492849047 ], [ 9.602699449819799, 47.584157492392556 ], [ 9.73038204989172, 47.533783242289282 ] ] ] ] } },
{ "type": "Feature", "properties": { "ID": "39", "NAME_EN": "Luxembourg", "NAME_FR": "Luxembourg", "UE28": "true" }, "geometry": { "type": "MultiPolygon", "coordinates": [ [ [ [ 6.02488703162278, 50.182803733543174 ], [ 6.137662550186576, 50.129951243516444 ], [ 6.119548550325367, 50.056480744015097 ], [ 6.233855049770801, 49.900058743959598 ], [ 6.487385550203045, 49.812393243651435 ], [ 6.506687545351916, 49.713420737597161 ], [ 6.380041049854642, 49.551139743964406 ], [ 6.367102550342454, 49.469482743750291 ], [ 6.15574904967894, 49.504143243151404 ], [ 6.042144550230829, 49.447834243660459 ], [ 5.893388050318321, 49.496940743751772 ], [ 5.818615042004885, 49.54638624364523 ], [ 5.907797048902785, 49.639064745151046 ], [ 5.739470049803004, 49.833816244133622 ], [ 5.895269049826823, 50.112228243690829 ], [ 6.02488703162278, 50.182803733543174 ] ] ] ] } },
{ "type": "Feature", "properties": { "ID": "40", "NAME_EN": "Belgium", "NAME_FR": "Belgique", "UE28": "true" }, "geometry": { "type": "MultiPolygon", "coordinates": [ [ [ [ 6.02099904569243, 50.754295243832892 ], [ 6.190897049958951, 50.639762743769175 ], [ 6.226583549890965, 50.49434624402673 ], [ 6.375121549619854, 50.451526744285623 ], [ 6.404276049600071, 50.323828244136806 ], [ 6.208781550028565, 50.253600744002739 ], [ 6.137662550186576, 50.129951243516444 ], [ 6.02488703162278, 50.182803733543174 ], [ 5.895269049826823, 50.112228243690829 ], [ 5.739470049803004, 49.833816244133622 ], [ 5.907797050193784, 49.639064743650152 ], [ 5.818615050144499, 49.546386243288396 ], [ 5.664334049976448, 49.553043743635278 ], [ 5.470877551717802, 49.497260740497751 ], [ 5.393709545832739, 49.617332241886878 ], [ 4.968768549928714, 49.801589743664273 ], [ 4.807217049926973, 49.984016744164322 ], [ 4.688632550152137, 50.011451744003757 ], [ 4.432763549798048, 49.94181774335938 ], [ 4.233142549688975, 49.957856243744139 ], [ 4.141575550271462, 49.978782743812815 ], [ 4.200324549838181, 50.100921743889955 ], [ 4.136217049577229, 50.274593243517423 ], [ 4.054089035731771, 50.339203242464414 ], [ 3.900571550136989, 50.327011244333697 ], [ 3.673361050272325, 50.388035243622085 ], [ 3.607784549717219, 50.497054743925403 ], [ 3.288672050274957, 50.525874743782673 ], [ 3.179856050416445, 50.755295244049286 ], [ 3.018923050158667, 50.773689244241019 ], [ 2.863212049696366, 50.708278244092163 ], [ 2.718230550299725, 50.813476244429872 ], [ 2.635173050296091, 50.812950244454655 ], [ 2.632778049567382, 50.946296244235761 ], [ 2.545449050433381, 51.089050244399168 ], [ 3.221941050439175, 51.35959624452056 ], [ 3.367175049788788, 51.368137244491628 ], [ 3.380618050083002, 51.274471244463307 ], [ 3.388168050215365, 51.273040744145355 ], [ 3.416875550266472, 51.259978744327945 ], [ 3.562639549775439, 51.295837244114196 ], [ 3.583378550179985, 51.292270744218527 ], [ 3.587954549862612, 51.292946244792702 ], [ 3.589948050062505, 51.305881744172382 ], [ 3.672840980884273, 51.284650357061047 ], [ 3.769320549903518, 51.259838244143992 ], [ 3.778881550143472, 51.26212774450515 ], [ 3.820784049844068, 51.209235744315393 ], [ 3.856369049591989, 51.210922244747721 ], [ 3.890311550038065, 51.21410724413748 ], [ 3.886288049753716, 51.200176244715003 ], [ 3.935971550346839, 51.21188374412192 ], [ 3.977734049886529, 51.225024743985209 ], [ 4.014915550412352, 51.245086244632105 ], [ 4.23487954975144, 51.348213744812838 ], [ 4.279519047011328, 51.376106242446099 ], [ 4.397189049634959, 51.431556744529907 ], [ 4.395431551416374, 51.435516242331161 ], [ 4.476069050346442, 51.478156744141081 ], [ 4.64127454978069, 51.422031744147198 ], [ 4.748927049943457, 51.496681244954345 ], [ 4.835170550280736, 51.458804744737186 ], [ 4.828546049660531, 51.423801744832929 ], [ 4.903155050365339, 51.413559244637192 ], [ 4.922977310654402, 51.397324012159899 ], [ 5.010975050158498, 51.45600474421628 ], [ 5.010879550251106, 51.472327744230078 ], [ 5.045759549863373, 51.471092244810734 ], [ 5.10460105009844, 51.431366244738143 ], [ 5.102176049784934, 51.42900124449254 ], [ 5.13168004969458, 51.347027244055951 ], [ 5.242166050123161, 51.305278744243623 ], [ 5.237603050140716, 51.261528244737754 ], [ 5.56623304961562, 51.220855744183808 ], [ 5.745716050055706, 51.189555244151407 ], [ 5.810127049923438, 51.117965744163094 ], [ 5.687694549863637, 50.81208424408868 ], [ 5.682038153553538, 50.757488228795488 ], [ 6.02099904569243, 50.754295243832892 ] ] ] ] } },
{ "type": "Feature", "properties": { "ID": "41", "NAME_EN": "Portugal", "NAME_FR": "Portugal", "UE28": "true" }, "geometry": { "type": "MultiPolygon", "coordinates": [ [ [ [ -8.863185949971573, 41.872066237715899 ], [ -8.523509950124037, 42.078471737912935 ], [ -8.331857275427481, 42.084220830904677 ], [ -8.199000450010706, 42.15441923835683 ], [ -8.149065950433235, 42.079887238439099 ], [ -8.216983950149148, 41.913654738261819 ], [ -8.165075450371724, 41.81830223775922 ], [ -8.051862450091953, 41.820613738236624 ], [ -7.988738450219275, 41.867672238328403 ], [ -7.701133450448307, 41.908073738093869 ], [ -7.522345949705774, 41.841827738081868 ], [ -7.315793450107606, 41.842853737732888 ], [ -6.983513449585979, 41.972904238478819 ], [ -6.94167545016183, 41.944304737986862 ], [ -6.59935344970188, 41.948215238459518 ], [ -6.517932949645854, 41.875382237752241 ], [ -6.558021450229712, 41.738090737626692 ], [ -6.288293450182558, 41.656490238189789 ], [ -6.211201950109849, 41.560486238218481 ], [ -6.318309450320838, 41.386142237185354 ], [ -6.479712949792769, 41.294380237684862 ], [ -6.689785949861642, 41.205241737761284 ], [ -6.808374949843999, 41.036525737262849 ], [ -6.929903449584449, 41.029466237260401 ], [ -6.808777450418984, 40.882098737413472 ], [ -6.793930450130114, 40.661743736924777 ], [ -6.849742950077034, 40.452636237116664 ], [ -6.794232949690803, 40.328853236714366 ], [ -6.865143949833392, 40.270694736444511 ], [ -6.951298449663683, 40.257445736990135 ], [ -7.011960450214535, 40.126933736537254 ], [ -6.881000949933828, 40.041240236300396 ], [ -6.904057950214161, 39.870776736146119 ], [ -6.981149450286861, 39.820411236429564 ], [ -7.015404949878477, 39.670856236421649 ], [ -7.333769949923184, 39.641238735745823 ], [ -7.542928950110936, 39.662815236121922 ], [ -7.495226450040609, 39.585975735904569 ], [ -7.294675950234879, 39.455993235585851 ], [ -7.310607950196701, 39.341022235961532 ], [ -7.231466950039646, 39.278430735402836 ], [ -7.241425449724667, 39.20861373527984 ], [ -6.981612950077531, 39.088451735485073 ], [ -6.951391450355118, 39.024070735138679 ], [ -7.039417450155161, 38.864845735247357 ], [ -7.203134950217764, 38.751017735272029 ], [ -7.255388449717156, 38.725967734789961 ], [ -7.316635947703994, 38.43987673184953 ], [ -7.151659449723766, 38.276145734454992 ], [ -7.107952450445167, 38.188121734658694 ], [ -6.931738449669702, 38.208377734393729 ], [ -6.990200450390437, 38.05549223457362 ], [ -7.202309949944213, 38.003536234351856 ], [ -7.324220950236628, 37.815822734583655 ], [ -7.418440949690025, 37.744995233723245 ], [ -7.512691449650619, 37.526256734018688 ], [ -7.46433344992875, 37.487922734265311 ], [ -7.401916450283924, 37.174827733211835 ], [ -7.506189950205971, 37.167599233508867 ], [ -7.90123945044025, 36.963372733046711 ], [ -8.18210644975278, 37.090275233427086 ], [ -8.301143949733447, 37.072528733407971 ], [ -8.619509449801233, 37.12323323347259 ], [ -8.894977450149161, 37.041171233427093 ], [ -8.957600450300516, 37.092529233051792 ], [ -8.796315449997959, 37.442947234000329 ], [ -8.819528950300771, 37.599326233950578 ], [ -8.786038450014411, 37.713840234088046 ], [ -8.809886949922774, 37.92975523398438 ], [ -8.87218844963717, 37.968994734126859 ], [ -8.7805214501048, 38.182268234513906 ], [ -8.79332195044759, 38.395615734715335 ], [ -8.735066450256463, 38.516034734672729 ], [ -8.883556949593535, 38.5202672347068 ], [ -9.067880950245629, 38.435254734395087 ], [ -9.168855950042039, 38.429676734364804 ], [ -9.187822949669345, 38.55031723464441 ], [ -9.126277449744464, 38.654385735109194 ], [ -8.924883449711395, 38.758674234927355 ], [ -8.96846894968224, 38.827761735583721 ], [ -9.135012449664774, 38.706136734869546 ], [ -9.323783950368982, 38.673161234917373 ], [ -9.500529949597418, 38.780704735556405 ], [ -9.415474450085757, 38.945053235202934 ], [ -9.416459449643874, 39.054692735374097 ], [ -9.358871949680692, 39.172403735452619 ], [ -9.346953450441346, 39.363462235689646 ], [ -9.227010950095243, 39.436475735734049 ], [ -9.075418449801603, 39.590795236029088 ], [ -9.040265950213376, 39.741421735988126 ], [ -8.894937950126241, 40.045502735919186 ], [ -8.909242449679256, 40.186537236895347 ], [ -8.784032950160459, 40.52036673724308 ], [ -8.653144449556628, 40.964739237149459 ], [ -8.667773949707961, 41.143024737389858 ], [ -8.716243450075131, 41.20282973714572 ], [ -8.776427450166633, 41.471978737717464 ], [ -8.811572950331366, 41.61157673809133 ], [ -8.881055450248764, 41.752742737929388 ], [ -8.863185949971573, 41.872066237715899 ] ] ] ] } },
{ "type": "Feature", "properties": { "ID": "42", "NAME_EN": "Spain", "NAME_FR": "Espagne", "UE28": "true" }, "geometry": { "type": "MultiPolygon", "coordinates": [ [ [ [ -5.210516609343837, 36.371421269549209 ], [ -6.137227409832107, 36.312660222777417 ], [ -6.234456949628454, 36.436310232869637 ], [ -6.2328749504186, 36.584945232728359 ], [ -6.387675950284859, 36.628631232882221 ], [ -6.442863950211066, 36.737804233128443 ], [ -6.345560949777973, 36.798767233233505 ], [ -6.397880949646041, 36.808742732813492 ], [ -6.521941450137772, 36.977199233053916 ], [ -6.798177949952396, 37.122200233498504 ], [ -7.021113949649018, 37.201042233437647 ], [ -7.284924450203163, 37.200687233254207 ], [ -7.401916450283924, 37.174827733211835 ], [ -7.464333448591638, 37.487922727607057 ], [ -7.512691449650619, 37.526256734018688 ], [ -7.418440949690025, 37.744995233723245 ], [ -7.324220950236628, 37.815822734583655 ], [ -7.202309949944213, 38.003536234351856 ], [ -6.990200450390437, 38.05549223457362 ], [ -6.931738458273814, 38.208377711933537 ], [ -7.107952450445167, 38.188121734658694 ], [ -7.151659449723766, 38.276145734454992 ], [ -7.316635950288854, 38.439876734405075 ], [ -7.255388449717156, 38.725967734789961 ], [ -7.203134950217764, 38.751017735272029 ], [ -7.039417450155161, 38.864845735247357 ], [ -6.951391450355118, 39.024070735138679 ], [ -6.981612950077531, 39.088451735485073 ], [ -7.241425449724667, 39.20861373527984 ], [ -7.231466950039646, 39.278430735402836 ], [ -7.310607950196701, 39.341022235961532 ], [ -7.294675950234879, 39.455993235585851 ], [ -7.495226450040609, 39.585975735904569 ], [ -7.542928950110936, 39.662815236121922 ], [ -7.333769949923184, 39.641238735745823 ], [ -7.015405777523581, 39.670856160811972 ], [ -6.981149450286861, 39.820411236429564 ], [ -6.904057950214161, 39.870776736146119 ], [ -6.881000951402083, 40.041240225453834 ], [ -7.011960450214535, 40.126933736537254 ], [ -6.951298449663683, 40.257445736990135 ], [ -6.865143949833392, 40.270694736444511 ], [ -6.794232949690803, 40.328853236714366 ], [ -6.849742950077034, 40.452636237116664 ], [ -6.793930450130114, 40.661743736924777 ], [ -6.808777450418984, 40.882098737413472 ], [ -6.929903449584449, 41.029466237260401 ], [ -6.808374949843999, 41.036525737262849 ], [ -6.689785949861642, 41.205241737761284 ], [ -6.47971294150618, 41.294380236177176 ], [ -6.318309450320838, 41.386142237185354 ], [ -6.211201950109849, 41.560486238218481 ], [ -6.288293450182558, 41.656490238189789 ], [ -6.558021450229712, 41.738090737626692 ], [ -6.517932949645854, 41.875382237752241 ], [ -6.59935344970188, 41.948215238459518 ], [ -6.94167545016183, 41.944304737986862 ], [ -6.983513449585979, 41.972904238478819 ], [ -7.315793450107606, 41.842853737732888 ], [ -7.522345949705774, 41.841827738081868 ], [ -7.701133450448307, 41.908073738093869 ], [ -7.988738450219275, 41.867672238328403 ], [ -8.051862452686493, 41.820613738185159 ], [ -8.165075450371724, 41.81830223775922 ], [ -8.216983950149148, 41.913654738261819 ], [ -8.149065950433235, 42.079887238439099 ], [ -8.199000450010706, 42.15441923835683 ], [ -8.331857449661523, 42.084220738633903 ], [ -8.523509950124037, 42.078471737912935 ], [ -8.863185949971573, 41.872066237715899 ], [ -8.898766450411298, 42.103592238046133 ], [ -8.819327450001767, 42.128787738040742 ], [ -8.885252949563951, 42.456875238865464 ], [ -8.726749449827192, 42.688251238567972 ], [ -8.860467949636137, 42.645927738302291 ], [ -9.140256949598495, 42.796161239006622 ], [ -9.10992895036072, 42.840717238804238 ], [ -9.260543949643518, 42.975910239275635 ], [ -9.277218949694708, 43.044109739440124 ], [ -9.165834450099736, 43.183223739068474 ], [ -8.993202449933047, 43.216160239015529 ], [ -8.956611449658615, 43.293712739727617 ], [ -8.82518195018678, 43.328453239230953 ], [ -8.710747950257655, 43.289516739578822 ], [ -8.533979449991602, 43.315219739593623 ], [ -8.324590950012288, 43.483780239200563 ], [ -8.302733450188562, 43.546352239749432 ], [ -8.087273449909743, 43.654110739492694 ], [ -8.062279450236417, 43.704040739802686 ], [ -7.699736449877201, 43.735114739293437 ], [ -7.533124950356122, 43.729130239403844 ], [ -7.357209949879236, 43.671642739508783 ], [ -7.236136450436783, 43.5687747395664 ], [ -7.031836950414859, 43.544471239340062 ], [ -6.936332450182366, 43.569690239517506 ], [ -6.754491746436759, 43.56790944560943 ], [ -6.36936045012464, 43.551059739204952 ], [ -6.209378949678753, 43.585067239078981 ], [ -6.116846449803737, 43.555122239492377 ], [ -5.810725449619775, 43.642273239482428 ], [ -5.67939295012451, 43.541480739925618 ], [ -5.408843949988235, 43.556178739650569 ], [ -5.214742449904067, 43.474262239137069 ], [ -4.926695949558396, 43.458408739184975 ], [ -4.512300950228622, 43.393204239543088 ], [ -4.282006450237417, 43.388519739349711 ], [ -3.944925949572852, 43.469291739244319 ], [ -3.687580950400498, 43.475292239871862 ], [ -3.590908950287775, 43.513763239640369 ], [ -3.423833450053622, 43.412956239414342 ], [ -3.153337949686604, 43.353221739317746 ], [ -2.946316450044089, 43.435169739485694 ], [ -2.737964950222241, 43.429187739711345 ], [ -2.509627449647048, 43.377567739705505 ], [ -2.412846949926749, 43.321082739276214 ], [ -2.178016950321931, 43.287761239560993 ], [ -1.785977950422022, 43.350478739625736 ], [ -1.728902949811238, 43.296089239605116 ], [ -1.389676950031171, 43.259383739415931 ], [ -1.414167949890951, 43.128288739072104 ], [ -1.309055449949025, 43.071159739520404 ], [ -0.945180450217548, 42.953437738950967 ], [ -0.767590949862379, 42.968986739250312 ], [ -0.724500950258574, 42.920158239373578 ], [ -0.564764950342125, 42.799892738418947 ], [ -0.394822450095941, 42.798961738652316 ], [ -0.313341949970944, 42.849364739193426 ], [ -0.016747450234617, 42.685104739153871 ], [ 0.175701050063477, 42.737041238468464 ], [ 0.295051550089003, 42.673358738866121 ], [ 0.477755549778865, 42.700020239017128 ], [ 0.660127050323181, 42.690952239021179 ], [ 0.85821504988468, 42.82574123884897 ], [ 1.108451550398801, 42.771857738779488 ], [ 1.166066049808424, 42.708919238414069 ], [ 1.332751050020989, 42.724746238943268 ], [ 1.442566050083195, 42.603668238289984 ], [ 1.725801049778675, 42.504402238977683 ], [ 1.731011049920086, 42.492401238621461 ], [ 1.958471549622348, 42.423439238365361 ], [ 2.256826049582565, 42.438747238342913 ], [ 2.483317549565297, 42.339793738152821 ], [ 2.609941050439142, 42.346908238892638 ], [ 2.839501049833642, 42.459271238743085 ], [ 3.040198550123026, 42.473533738170275 ], [ 3.174804050366675, 42.435375238422154 ], [ 3.12423205016904, 42.128017738504163 ], [ 3.210457549676224, 42.068973737871865 ], [ 3.233697050278693, 41.950325237738419 ], [ 3.032427049668684, 41.771583738058339 ], [ 2.778513050436969, 41.648807238212385 ], [ 2.468394550268326, 41.545910237823207 ], [ 2.252748050382248, 41.447960238041674 ], [ 2.119573049556657, 41.292061237760848 ], [ 1.218208549584911, 41.105514236946 ], [ 0.966513050137224, 41.028423237724574 ], [ 0.745196049558109, 40.838936237124116 ], [ 0.750103050115739, 40.635047736979288 ], [ 0.598207550238333, 40.620437236791162 ], [ 0.515238549819281, 40.522918237097358 ], [ 0.403593049879421, 40.363380236268469 ], [ 0.147707049640699, 40.082782236503327 ], [ 0.049570050317644, 40.035815736154611 ], [ -0.007067949925892, 39.914069736159782 ], [ -0.188466949689946, 39.721954235744342 ], [ -0.318002949976119, 39.517490236032003 ], [ -0.335751450069317, 39.42460623604476 ], [ -0.278711310212944, 39.309978128559976 ], [ -0.222107949722053, 39.1887242353598 ], [ -0.239605949954581, 39.147735235477036 ], [ -0.142824950211264, 38.978332735684404 ], [ -0.037615950315805, 38.886413235208884 ], [ 0.170790550243742, 38.815078735250907 ], [ 0.182308049876667, 38.720924235127228 ], [ -0.01659345032744, 38.626454234842811 ], [ -0.109291449740571, 38.533145735062206 ], [ -0.301366949924729, 38.481929234769709 ], [ -0.519900949868879, 38.29758023457866 ], [ -0.506989949826275, 38.215431234120011 ], [ -0.636896450111011, 38.135924734114923 ], [ -0.657011449618666, 37.98440523433689 ], [ -0.860040950429496, 37.719043733934996 ], [ -0.805194950086847, 37.659171733781477 ], [ -0.919692450246323, 37.554595734192283 ], [ -0.999039450010576, 37.587417234237911 ], [ -1.127015950325818, 37.552219234314336 ], [ -1.325323450117081, 37.562442233616693 ], [ -1.502117949783498, 37.431827733824193 ], [ -1.630032949960649, 37.375183234122439 ], [ -1.803101449572182, 37.221019733819418 ], [ -1.895657449631533, 36.948463233457737 ], [ -2.003606950000691, 36.881543232931271 ], [ -2.124339949928701, 36.731842233375758 ], [ -2.18413645013703, 36.720161733408673 ], [ -2.319815950445735, 36.834178733110804 ], [ -2.562034949952932, 36.816601232791328 ], [ -2.650479450166472, 36.699787232705091 ], [ -2.771100950348516, 36.680759732966152 ], [ -2.923722949554422, 36.751468232836295 ], [ -3.128690949827445, 36.750887733045545 ], [ -3.338397950105267, 36.738399232688636 ], [ -3.420360949997822, 36.694095232813289 ], [ -3.602092949829748, 36.744495733247931 ], [ -3.777457450101163, 36.737926233358607 ], [ -4.074394450343561, 36.748397733329163 ], [ -4.249428449763117, 36.710120732606754 ], [ -4.390942450233869, 36.722282233172095 ], [ -4.638161450090829, 36.507091732509195 ], [ -4.936012450214376, 36.499389232530845 ], [ -5.18426144990593, 36.409065232784798 ], [ -5.210516609343837, 36.371421269549209 ] ] ] ] } },
{ "type": "Feature", "properties": { "ID": "43", "NAME_EN": "Ireland", "NAME_FR": "Irlande", "UE28": "true" }, "geometry": { "type": "MultiPolygon", "coordinates": [ [ [ [ -6.24232284922004, 53.858348745941996 ], [ -6.247097849985709, 53.722454745586504 ], [ -6.214899349925012, 53.633406745389898 ], [ -6.104863350463211, 53.581237245248914 ], [ -6.117892783125392, 53.400406154701038 ], [ -6.10277285028677, 53.210772745476511 ], [ -6.014684350302486, 52.95220874485058 ], [ -6.14451634984958, 52.737696745038534 ], [ -6.225526850783459, 52.648201744909123 ], [ -6.194978849494245, 52.562266745274414 ], [ -6.449309349946465, 52.346805744862543 ], [ -6.682056348821384, 52.218823744241128 ], [ -6.897632850875304, 52.17377574425727 ], [ -6.97979735016752, 52.245787744840435 ], [ -6.969284350092664, 52.177477244982441 ], [ -7.18442685011899, 52.133726744579015 ], [ -7.443065849609236, 52.127219744877955 ], [ -7.656562070483104, 52.06939210881724 ], [ -7.842155850012419, 51.954218744709124 ], [ -8.062032350712338, 51.808799244836813 ], [ -8.273785350913146, 51.798007244481703 ], [ -8.339984850520407, 51.716753743997785 ], [ -8.659526349961027, 51.634649244738618 ], [ -8.737438349200422, 51.57222324375207 ], [ -8.854766350386727, 51.599369243751944 ], [ -9.380689350533027, 51.469582244423833 ], [ -9.45545984969225, 51.525138244258095 ], [ -9.703245349593136, 51.49490324479904 ], [ -9.784565850433571, 51.579746744464387 ], [ -9.933767850206083, 51.615836244110916 ], [ -9.948080349228682, 51.74106424453754 ], [ -9.85737885015379, 51.749989245129669 ], [ -10.122495849803546, 51.745723744475512 ], [ -10.257523350622069, 51.91361874480171 ], [ -10.261409349062141, 51.985692744647586 ], [ -10.133214349462593, 52.028945744591887 ], [ -10.142557850464339, 52.113931744531513 ], [ -10.357986046219022, 52.216896233594241 ], [ -9.838149849236109, 52.389643245430264 ], [ -9.689442350683839, 52.482782245432709 ], [ -9.679522350076351, 52.572756745192159 ], [ -9.605359850176896, 52.744698245060427 ], [ -9.498436350357215, 52.750078744972711 ], [ -9.389591850083768, 52.897041244949179 ], [ -9.405927849790368, 53.021841744540438 ], [ -9.264671849526168, 53.154296245464941 ], [ -9.009308350000291, 53.140817745327219 ], [ -8.996473729379028, 53.22206603063767 ], [ -9.038287350880459, 53.269704245387238 ], [ -9.509954850935568, 53.221899745091982 ], [ -9.556517892886401, 53.308211423964899 ], [ -9.773515850775818, 53.299344745307337 ], [ -9.919686851067297, 53.38588124569835 ], [ -10.13789985059759, 53.447729745229481 ], [ -10.153942851181567, 53.54159974566366 ], [ -10.035004850393468, 53.610673744754259 ], [ -9.658158850550462, 53.608020245593657 ], [ -9.770281850027267, 53.900565245748183 ], [ -9.828074159794587, 53.965969957828577 ], [ -9.953674350890523, 54.172807245809388 ], [ -9.806319849981008, 54.342376245975046 ], [ -9.678895849963443, 54.316496745927665 ], [ -9.26404085010512, 54.309740745536317 ], [ -9.132258349643049, 54.162360245177261 ], [ -9.023603350014522, 54.29658124572083 ], [ -8.826413850518744, 54.252815245505651 ], [ -8.545405350976116, 54.280292745501363 ], [ -8.452360349050807, 54.461584745786567 ], [ -8.381138849877974, 54.464267245385074 ], [ -8.321755350728774, 54.473463244983805 ], [ -8.435918349851924, 54.637889746318741 ], [ -8.678875849241017, 54.622590745865374 ], [ -8.773294349754384, 54.657559745995691 ], [ -8.701136349662757, 54.754479245861468 ], [ -8.504188849635673, 54.775031745765901 ], [ -8.385326349631251, 54.85681324540802 ], [ -8.449081849847445, 55.00622674598673 ], [ -8.273086850177947, 55.154527746522497 ], [ -8.015844850359469, 55.185410745283193 ], [ -7.827043350070481, 55.169683746676384 ], [ -7.754842849817629, 55.246594245619804 ], [ -7.548433850541693, 55.20778574559592 ], [ -7.379604850383473, 55.296060245190695 ], [ -7.041891850228631, 55.275215746210051 ], [ -7.049339349231545, 55.186567245555828 ], [ -7.345745322410472, 55.050580307326712 ], [ -7.557193449617949, 54.745120745963675 ], [ -7.638375950389712, 54.751437745895309 ], [ -7.703411450278163, 54.608287745477625 ], [ -7.850330449990214, 54.533077745811681 ], [ -7.946577950312127, 54.304289745970451 ], [ -7.859530949793433, 54.217448745929516 ], [ -7.610702950380795, 54.143547245450812 ], [ -7.37353845013932, 54.137619245471562 ], [ -7.220806950380375, 54.215850745981157 ], [ -7.180671950350185, 54.331817745597114 ], [ -6.920528949851115, 54.378688746008891 ], [ -6.81538595030132, 54.223289245470859 ], [ -6.586089949591424, 54.05741524572958 ], [ -6.454262613349639, 54.058305673451599 ], [ -6.24232284922004, 53.858348745941996 ] ] ] ] } },
{ "type": "Feature", "properties": { "ID": "44", "NAME_EN": "Italy", "NAME_FR": "Italie", "UE28": "true" }, "geometry": { "type": "MultiPolygon", "coordinates": [ [ [ [ 12.494100313722994, 46.678668959416903 ], [ 12.495798787617725, 45.457926730170854 ], [ 12.394324549938059, 45.427882740945115 ], [ 12.296097550061917, 45.243988241078142 ], [ 12.332430050106778, 45.162784241053153 ], [ 12.329987549885576, 45.088787240636535 ], [ 12.496705595371278, 44.947821453475619 ], [ 12.496773580791405, 44.911961688755142 ], [ 12.39431305030706, 44.794445240230758 ], [ 12.272729049805831, 44.630435740066574 ], [ 12.287173050396005, 44.467273240290488 ], [ 12.383539049887306, 44.224495239995385 ], [ 12.451822550270547, 44.162524740207587 ], [ 12.498386257639586, 44.132332972082473 ], [ 12.5053995004412, 41.571736932866024 ], [ 12.456283550045846, 41.624919738282657 ], [ 12.226584549637327, 41.741656737500868 ], [ 12.140027050108309, 41.917537238342625 ], [ 11.912716050105695, 42.040199738325967 ], [ 11.839238050295821, 42.028705737967968 ], [ 11.733792550286008, 42.15803923802325 ], [ 11.646740050413024, 42.284942738430992 ], [ 11.449975049808753, 42.377811238593274 ], [ 11.176530050121759, 42.449332738173084 ], [ 11.190967550412156, 42.515632238852035 ], [ 10.919873550324155, 42.750904239257224 ], [ 10.78504304959711, 42.774524238540941 ], [ 10.786876549613114, 42.887905238570795 ], [ 10.706510549622241, 42.942813739144199 ], [ 10.516339550030244, 43.000758739454831 ], [ 10.524840549951477, 43.245174738859035 ], [ 10.340265550314935, 43.465526239163481 ], [ 10.298988549781765, 43.581436239804823 ], [ 10.259428050164439, 43.815663239671828 ], [ 10.144017550169838, 43.975754239900247 ], [ 10.018759050190056, 44.04444524024467 ], [ 9.852150049884926, 44.109329240392888 ], [ 9.740813049782448, 44.091846239938882 ], [ 9.511458549972138, 44.216796740203399 ], [ 9.246118549931166, 44.340965240377379 ], [ 8.745085550058151, 44.427326239905589 ], [ 8.500453049868382, 44.32506574010322 ], [ 8.40653554997567, 44.181324240219418 ], [ 8.268501549906663, 44.139651740300451 ], [ 8.13545704970312, 43.938995239942848 ], [ 7.952974550335284, 43.847816739481949 ], [ 7.673182550234572, 43.776424739583291 ], [ 7.529827050278182, 43.784008239468086 ], [ 7.4975155504024, 43.870937740034378 ], [ 7.714059050285016, 44.061580239938792 ], [ 7.66657754961426, 44.131115239634681 ], [ 7.280327049553763, 44.141181739811522 ], [ 7.008531550390789, 44.235241240031755 ], [ 6.887441550187416, 44.361049240269843 ], [ 6.853520049810529, 44.529277739846748 ], [ 6.948340549976423, 44.654819740406715 ], [ 7.065674049617769, 44.713428740756918 ], [ 6.913168550388319, 44.844997240443973 ], [ 6.748870549636199, 44.922443240735497 ], [ 6.745403049810935, 45.014312740682392 ], [ 6.629997550046935, 45.109329240964975 ], [ 6.836030049946886, 45.135226740954046 ], [ 7.137599549779452, 45.255699740672924 ], [ 7.17944754966476, 45.390349741269418 ], [ 7.104360050276173, 45.467075740731005 ], [ 6.808423550306658, 45.725158740848599 ], [ 6.802517050421613, 45.778377240820575 ], [ 6.820172549823385, 45.836925241052548 ], [ 6.991448050387253, 45.867992241116667 ], [ 7.044000050162255, 45.923007741221049 ], [ 7.117611549833216, 45.859543240889451 ], [ 7.294503550398591, 45.921799241247868 ], [ 7.382956550104776, 45.89651074146547 ], [ 7.575359058977194, 45.987404239197566 ], [ 7.863569549894859, 45.916705741079369 ], [ 7.988935050312364, 45.99617724124527 ], [ 8.034332550207072, 46.100837241078025 ], [ 8.427736050078687, 46.298309241148218 ], [ 8.611781119162409, 46.121707724836057 ], [ 8.7149210505866, 46.097301237357101 ], [ 9.017415049564933, 46.049995741007081 ], [ 9.261677549779176, 46.233257241353179 ], [ 9.299197049704118, 46.327506741332869 ], [ 9.461172058649513, 46.375858734821428 ], [ 9.549526049987263, 46.302379741804117 ], [ 9.714438550298903, 46.292915741534166 ], [ 9.832716550328595, 46.361248241526212 ], [ 10.45314804974276, 46.531921241402024 ], [ 10.492018049893147, 46.615345242175522 ], [ 10.402252049892239, 46.636813742061406 ], [ 10.469754050209293, 46.855026241714697 ], [ 10.667000049612634, 46.876201241555073 ], [ 10.755399550448933, 46.785400242327967 ], [ 10.996800550005444, 46.767600741669611 ], [ 11.189600099067489, 46.971401244030602 ], [ 11.837400050072286, 46.993801241872525 ], [ 12.13659955032904, 47.080001742081919 ], [ 12.241108050296369, 47.069230241770342 ], [ 12.121800698180904, 47.007198102838629 ], [ 12.306200050092285, 46.83399924150477 ], [ 12.378199550069217, 46.722599242019989 ], [ 12.478720549613744, 46.680301242038894 ], [ 12.494100313722994, 46.678668959416903 ] ] ] ] } },
{ "type": "Feature", "properties": { "ID": "45", "NAME_EN": "Italy", "NAME_FR": "Italie", "UE28": "true" }, "geometry": { "type": "MultiPolygon", "coordinates": [ [ [ [ 12.519087009575362, 38.016304496397247 ], [ 12.520644710689247, 37.670144549261387 ], [ 12.471061049827656, 37.704654234044845 ], [ 12.440544049967981, 37.809837233747352 ], [ 12.506825549759357, 38.010311234724654 ], [ 12.519087009575362, 38.016304496397247 ] ] ] ] } },
{ "type": "Feature", "properties": { "ID": "46", "NAME_EN": "Italy", "NAME_FR": "Italie", "UE28": "true" }, "geometry": { "type": "MultiPolygon", "coordinates": [ [ [ [ 8.802777550343702, 40.931022237178659 ], [ 9.01132705030318, 41.1238477370539 ], [ 9.289839049832331, 41.192977737866329 ], [ 9.380413050222161, 41.187401237006362 ], [ 9.685654550317274, 40.834881237182067 ], [ 9.748901549566883, 40.660320236928911 ], [ 9.8006860499213, 40.455646736554556 ], [ 9.631596550340594, 40.276195736520798 ], [ 9.627498550217986, 40.224552236324314 ], [ 9.735756050401447, 40.077365736726478 ], [ 9.647264549819171, 39.651576735854469 ], [ 9.651421549964601, 39.549133235687485 ], [ 9.563871549632379, 39.141464235863907 ], [ 9.417467050264177, 39.133887735401366 ], [ 9.293750050324601, 39.213805735495633 ], [ 9.096641550067549, 39.21451523583945 ], [ 9.018653049998303, 39.148086235476036 ], [ 9.012220731801392, 38.986349681817465 ], [ 8.858577049691124, 38.878764735023175 ], [ 8.61262704989849, 38.957809735327892 ], [ 8.565087550150398, 39.045272735331793 ], [ 8.440057049892971, 39.117008735818544 ], [ 8.366708549759833, 39.228061735523973 ], [ 8.436851050435681, 39.28982123548554 ], [ 8.392729050005697, 39.44668973552028 ], [ 8.452061550400288, 39.547092736016175 ], [ 8.488477549799146, 39.728748736116884 ], [ 8.54544154978776, 39.795067235879884 ], [ 8.397856049916815, 39.907413735879246 ], [ 8.401957550200848, 40.032409736464224 ], [ 8.49287305015122, 40.086601736377027 ], [ 8.483047550304263, 40.285145236448763 ], [ 8.399829550093726, 40.407444236763389 ], [ 8.294342049945666, 40.593116736824406 ], [ 8.155596050317515, 40.75017523662153 ], [ 8.219063049819967, 40.868641237337407 ], [ 8.454823550066807, 40.820099237178979 ], [ 8.560665050351814, 40.831325736892637 ], [ 8.802777550343702, 40.931022237178659 ] ] ] ] } },
{ "type": "Feature", "properties": { "ID": "47", "NAME_EN": "Denmark", "NAME_FR": "Danemark", "UE28": "true" }, "geometry": { "type": "MultiPolygon", "coordinates": [ [ [ [ 9.63843805017593, 54.893073745741106 ], [ 9.420411050229866, 54.831927745334447 ], [ 8.947847550224303, 54.902541746191844 ], [ 8.635560049856453, 54.91165124539873 ], [ 8.670589550067749, 55.322921245533571 ], [ 8.621170049957867, 55.428245746289598 ], [ 8.435070050142771, 55.459617245993655 ], [ 8.158993049589656, 55.70698974580565 ], [ 8.170988049658831, 55.815475745764985 ], [ 8.189853550001367, 55.817447245850246 ], [ 8.180329549669011, 55.830741746494645 ], [ 8.383994050085391, 55.905986745972655 ], [ 8.30381804986315, 56.05828474646669 ], [ 8.107066049858361, 56.121219745734543 ], [ 8.117255550303467, 56.534759246190951 ], [ 8.387701050163413, 56.578975246470513 ], [ 8.702341050199387, 56.585178246540451 ], [ 8.961677550378676, 56.801662746454774 ], [ 9.112094050400168, 56.786903746623103 ], [ 9.143016050050727, 56.696780746324272 ], [ 9.319527550156343, 56.67219924588224 ], [ 9.184314049753661, 56.766780746741581 ], [ 9.177989050354421, 56.917465246568739 ], [ 9.293469549979815, 56.997108746535709 ], [ 9.58017854980028, 56.989742246769765 ], [ 9.690200050392033, 57.038821746500787 ], [ 9.997634049971454, 57.078274746566237 ], [ 10.27199255041592, 56.937851245988014 ], [ 10.278073564592765, 56.907651395999721 ], [ 10.306738050120945, 56.744060246684867 ], [ 10.193969549655041, 56.684746246229196 ], [ 10.429884049809116, 56.524615746065841 ], [ 10.795802050224486, 56.53787274587998 ], [ 10.950204049677213, 56.456333246610448 ], [ 10.914562049998672, 56.343681746114754 ], [ 10.742843549690127, 56.224422745780565 ], [ 10.39262655027512, 56.292991745858075 ], [ 10.209364050010935, 56.135680746213218 ], [ 10.260935050412273, 56.022381246410482 ], [ 10.258511550167951, 55.912564246225863 ], [ 10.005773550309121, 55.825370746121749 ], [ 10.007193550142281, 55.701595746170682 ], [ 9.821128050119453, 55.668857746402523 ], [ 9.672071549862201, 55.712150246363741 ], [ 9.793674550340267, 55.593876245585605 ], [ 9.622037050169752, 55.391025245752942 ], [ 9.586978050396738, 55.192779746064183 ], [ 9.492658549952187, 55.119438246231724 ], [ 9.630061049677748, 55.010338245833879 ], [ 9.63843805017593, 54.893073745741106 ] ] ] ] } },
{ "type": "Feature", "properties": { "ID": "48", "NAME_EN": "Denmark", "NAME_FR": "Danemark", "UE28": "true" }, "geometry": { "type": "MultiPolygon", "coordinates": [ [ [ [ 12.509037392223545, 56.068820245973519 ], [ 12.506883789929054, 55.613511150059857 ], [ 12.491257550395682, 55.600623745584656 ], [ 12.357489550102672, 55.599155746235525 ], [ 12.198251549769276, 55.485023245788085 ], [ 12.215687049817515, 55.427604745507793 ], [ 12.44464955043645, 55.347828245698771 ], [ 12.444394050345181, 55.2765547459055 ], [ 12.025352049857238, 54.962733745771573 ], [ 11.746814550051512, 55.064407245434971 ], [ 11.786937550427647, 55.152755245721757 ], [ 11.488858549682384, 55.204795746206088 ], [ 11.388573419079648, 55.189382033711546 ], [ 11.174598550083095, 55.305930746216418 ], [ 11.213320549703656, 55.403255745894022 ], [ 11.126621549944614, 55.615417246108514 ], [ 10.998943549904933, 55.669166246240032 ], [ 11.081907550093421, 55.735332746142845 ], [ 11.265819549732498, 55.730369745699257 ], [ 11.494895050166461, 55.847854246041571 ], [ 11.684807050405093, 55.784965746219697 ], [ 11.778861050297282, 55.658489245793831 ], [ 11.875791549740244, 55.73786924620299 ], [ 11.981175549611974, 55.730110246322823 ], [ 12.089591049887082, 55.780864245934495 ], [ 12.064894550443162, 55.879146745699444 ], [ 12.182772550013233, 56.109458746560584 ], [ 12.275827549701708, 56.128135246286327 ], [ 12.275827574556052, 56.128135239996716 ], [ 12.509037392223545, 56.068820245973519 ] ] ] ] } },
{ "type": "Feature", "properties": { "ID": "49", "NAME_EN": "United Kingdom", "NAME_FR": "Royaume-Uni", "UE28": "true" }, "geometry": { "type": "MultiPolygon", "coordinates": [ [ [ [ -6.538095038151524, 54.057755957974678 ], [ -6.586089949591424, 54.05741524572958 ], [ -6.63494479183549, 54.093151827923023 ], [ -6.81538595030132, 54.223289245470859 ], [ -6.920528949851115, 54.378688746008891 ], [ -7.180671950350185, 54.331817745597114 ], [ -7.220806950380375, 54.215850745981157 ], [ -7.37353845013932, 54.137619245471562 ], [ -7.610702950380795, 54.143547245450812 ], [ -7.610702950380795, 54.143547245450812 ], [ -7.859530949793433, 54.217448745929516 ], [ -7.946577950312127, 54.304289745970451 ], [ -7.850330449990214, 54.533077745811681 ], [ -7.703411450278163, 54.608287745477625 ], [ -7.638375950389712, 54.751437745895309 ], [ -7.557193449617949, 54.745120745963675 ], [ -7.345745322410472, 55.050580307326712 ], [ -7.04406844969911, 55.051574745411195 ], [ -6.91661495011981, 55.175762245501851 ], [ -6.367451950247233, 55.246410746150744 ], [ -6.139728950130908, 55.227020245873589 ], [ -6.027017949618648, 55.16146474626737 ], [ -5.983086949902763, 54.979419245412771 ], [ -5.725410949855421, 54.84814074566917 ], [ -5.529730449800352, 54.642132245911796 ], [ -5.561935950183909, 54.533550246017541 ], [ -5.654785450288255, 54.514236745693516 ], [ -5.641296949694428, 54.400378745309993 ], [ -5.538138449929466, 54.312766745687121 ], [ -5.636691449550703, 54.24040574520329 ], [ -5.831348450070889, 54.240482245133833 ], [ -5.896720450188574, 54.104931245309494 ], [ -6.095886449999623, 54.063049245640677 ], [ -6.345940450191555, 54.113678245786112 ], [ -6.391180950040781, 54.058681245656018 ], [ -6.454262613349639, 54.058305673451599 ], [ -6.454262613349639, 54.058305673451599 ], [ -6.538095038151524, 54.057755957974678 ] ] ] ] } },
{ "type": "Feature", "properties": { "ID": "50", "NAME_EN": "United Kingdom", "NAME_FR": "Royaume-Uni", "UE28": "true" }, "geometry": { "type": "MultiPolygon", "coordinates": [ [ [ [ -3.613200950363531, 53.290126745593057 ], [ -3.363392449801655, 53.352028244870596 ], [ -3.08419295004454, 53.256122744996283 ], [ -3.110705949619831, 53.296317745110365 ], [ -2.928556450319884, 53.308276745322416 ], [ -2.82667695018108, 53.331672745056686 ], [ -2.969284949840525, 53.375831245387403 ], [ -3.102103950436903, 53.541648745225331 ], [ -2.956202950006112, 53.697529245465944 ], [ -3.05511845015633, 53.763546245673687 ], [ -3.050154949691145, 53.919257745313864 ], [ -2.921823450092119, 53.951476745431805 ], [ -2.813168449564269, 54.105087745331957 ], [ -2.869469949578433, 54.176738745449654 ], [ -3.325032449787667, 54.192085745418908 ], [ -3.426798950111383, 54.343120745234536 ], [ -3.613597949785509, 54.525096745586133 ], [ -3.580020950006769, 54.652328245760508 ], [ -3.438712450019506, 54.756763245968735 ], [ -3.397623450062099, 54.86907574612566 ], [ -3.281007450233564, 54.942516246027566 ], [ -3.057370449686451, 54.986896745801474 ], [ -3.329584950185268, 54.978931245391507 ], [ -3.726635950088955, 54.880523246131297 ], [ -3.964251450444005, 54.771660245870052 ], [ -4.219736950200058, 54.82583574588638 ], [ -4.600838950257291, 54.777023245874211 ], [ -4.815996450076045, 54.864703745956611 ], [ -4.932463950251066, 54.834300745948696 ], [ -5.148667449742955, 54.860748746131996 ], [ -5.161494950431559, 55.007961745957573 ], [ -5.06064495010428, 55.02964024562722 ], [ -4.859194450163669, 55.233181245805675 ], [ -4.847227449587073, 55.323871746198847 ], [ -4.620938949972519, 55.493758745734006 ], [ -4.697115450117897, 55.606025245565441 ], [ -4.902597449812386, 55.722881745725957 ], [ -4.878924449903363, 55.9424017462348 ], [ -4.609647949992831, 55.946674746334828 ], [ -4.779400949594103, 56.016387746109089 ], [ -4.813175950409732, 56.049068245923117 ], [ -4.787486450139498, 56.165847746128435 ], [ -4.914135950413706, 56.051929745682244 ], [ -4.895063950440875, 55.99664724587975 ], [ -5.242237949821448, 55.894478245852291 ], [ -5.314024949891457, 55.783824745762523 ], [ -5.448946950341433, 55.70780974584887 ], [ -5.5584359497592, 55.435127746196017 ], [ -5.715146450448278, 55.446571246016937 ], [ -5.716190950052236, 55.577018246083654 ], [ -5.618379949574932, 55.711417745859052 ], [ -5.625482949778234, 55.883514245660798 ], [ -5.687606450277424, 55.986881246076031 ], [ -5.517193949940799, 56.169147246301144 ], [ -5.694896950134078, 56.511875246688078 ], [ -5.905484449647565, 56.551303746523622 ], [ -5.852546950081651, 56.785667246258612 ], [ -5.882889950011121, 56.922801746249682 ], [ -5.731170450156117, 57.09867474663114 ], [ -5.582880950195643, 57.359649246865871 ], [ -5.872893950395444, 57.475620746677599 ], [ -5.755985949691747, 57.731796746857924 ], [ -5.814967450087674, 57.830787246891397 ], [ -5.655897950330083, 57.889518246540256 ], [ -5.474731949619732, 57.858455746698937 ], [ -5.330474950358608, 57.914974246840025 ], [ -5.36750145003184, 58.030524747020529 ], [ -5.275247950432504, 58.097339746247627 ], [ -5.182031949614706, 58.350887746640929 ], [ -5.020163450282939, 58.588531246537173 ], [ -4.875902449938044, 58.615490246900109 ], [ -4.67585544996898, 58.549389246426053 ], [ -4.52691594971127, 58.58018074636 ], [ -4.357073949603019, 58.536857746794531 ], [ -3.908110449737394, 58.559341246712634 ], [ -3.669221450009824, 58.616775246803208 ], [ -3.373982949853187, 58.594432747092128 ], [ -3.184374950143752, 58.657958746630179 ], [ -3.066135450090872, 58.564525746578383 ], [ -3.051043450195027, 58.450557746532077 ], [ -3.2098199499307, 58.310054746789362 ], [ -3.375893949845863, 58.271583747044488 ], [ -3.50824495044405, 58.172015746460765 ], [ -4.015319450132473, 57.949992746551594 ], [ -3.960827449926836, 57.846103746351709 ], [ -4.042852950003575, 57.677676746707874 ], [ -4.013364449909367, 57.601112746662096 ], [ -3.832458950420164, 57.597381246352796 ], [ -3.489665949823678, 57.699840746281865 ], [ -3.279392450401176, 57.719363746372558 ], [ -3.027205949894594, 57.663757746942828 ], [ -2.801508949678231, 57.695247746713527 ], [ -2.344569949843268, 57.670047746527999 ], [ -2.125360450224536, 57.699150246814654 ], [ -1.920823450042116, 57.674396746535244 ], [ -1.823377450209123, 57.612266746621707 ], [ -1.781817950138235, 57.460609746916376 ], [ -1.991414449816936, 57.316261746123139 ], [ -2.196506950435376, 56.910094746618256 ], [ -2.425345949855681, 56.755188246345078 ], [ -2.537891449930431, 56.567886245910699 ], [ -2.714217449575577, 56.495460246032138 ], [ -2.62038695009761, 56.261188746041107 ], [ -2.842896449911155, 56.183380246157959 ], [ -2.971876449738311, 56.205653746285854 ], [ -3.141234950032853, 56.11951024604047 ], [ -3.17972594979272, 55.989815246480639 ], [ -3.065524949816501, 55.945469246500494 ], [ -2.920935449611234, 55.97371674603076 ], [ -2.815697450177129, 56.062404245783284 ], [ -2.654761949804062, 56.059352746255421 ], [ -2.330471949920472, 55.930423246023814 ], [ -2.13755644967034, 55.91727824597853 ], [ -2.034328950320731, 55.811164745711196 ], [ -1.840803949842374, 55.64268524633431 ], [ -1.639347949648077, 55.578319745848404 ], [ -1.525348449970913, 55.160999745508079 ], [ -1.356924449603624, 54.96553424541581 ], [ -1.347372449778671, 54.86069124617832 ], [ -1.145979449791749, 54.627776745800944 ], [ -0.790906450372336, 54.559482745810939 ], [ -0.572154450267642, 54.481064245671902 ], [ -0.364068950121912, 54.245280745186228 ], [ -0.212449450381755, 54.157627245447507 ], [ -0.153891949753639, 53.901115745054518 ], [ -0.310102949891186, 53.741897745587799 ], [ -0.778019449637833, 53.697475745696686 ], [ -0.685040449856841, 53.672263744954542 ], [ -0.294135950113961, 53.714168745684603 ], [ 0.01737804965734, 53.525367245328233 ], [ 0.15644005036808, 53.480476245392325 ], [ 0.355055049950637, 53.19185674549599 ], [ 0.339612050056147, 53.0969927450871 ], [ 0.156314549976586, 53.012592245171994 ], [ 0.174787050182265, 52.873565245122627 ], [ 0.265960050316101, 52.810116244627046 ], [ 0.426392549976244, 52.836200245113382 ], [ 0.537564549664301, 52.974521244980956 ], [ 1.037185550073114, 52.967739245188881 ], [ 1.413979550216147, 52.890697244671365 ], [ 1.699448050387274, 52.71919274517149 ], [ 1.76302554958949, 52.48116724470038 ], [ 1.56541504956494, 52.100005744440843 ], [ 1.368995549604961, 51.964027244675584 ], [ 1.056380050299144, 51.951492744902907 ], [ 0.948857549836078, 51.734085244653471 ], [ 0.947812550209052, 51.606475744119749 ], [ 0.782155549738896, 51.521316244271127 ], [ 0.645871050308757, 51.539207744671451 ], [ 0.481309049972714, 51.487140244733148 ], [ 0.699916549709031, 51.472702244413199 ], [ 0.764979049943243, 51.361957244581724 ], [ 0.896784049644225, 51.34145374423624 ], [ 1.424993550012345, 51.393771744035632 ], [ 1.404793550182265, 51.173984244642284 ], [ 1.31300754965872, 51.114181744129723 ], [ 1.06040354968412, 51.059139244592593 ], [ 0.929874050347171, 50.913089744439979 ], [ 0.854784049943996, 50.923710244081356 ], [ 0.363425050126014, 50.816055244651778 ], [ 0.257987549585781, 50.737556244385701 ], [ -0.216008949953044, 50.827564243898152 ], [ -0.750150949606557, 50.763889243766663 ], [ -0.932830949988326, 50.843150744122369 ], [ -1.081883450061129, 50.777969243765391 ], [ -1.214068450198786, 50.809364244559006 ], [ -1.69204945002207, 50.736625743743119 ], [ -1.876182949983101, 50.715366244506498 ], [ -2.105656949908278, 50.596676244305876 ], [ -2.420879949849732, 50.636264744334333 ], [ -2.497852949853718, 50.59312774434089 ], [ -2.793105949779712, 50.718029244105523 ], [ -2.947814949899965, 50.718307244335186 ], [ -3.266256949898267, 50.67010474456648 ], [ -3.467371449632639, 50.577251244232805 ], [ -3.656222450405722, 50.230232243734967 ], [ -3.822775449927, 50.217094744032501 ], [ -3.910042949822237, 50.294372243728048 ], [ -4.039544450316093, 50.29187374362111 ], [ -4.185261450355594, 50.367194743922497 ], [ -4.218628450342636, 50.475204744436816 ], [ -4.282704450050288, 50.356834743703487 ], [ -4.765965949668785, 50.322689243771663 ], [ -4.785225950217404, 50.244682243709725 ], [ -5.2830589500105, 50.059990243980351 ], [ -5.433012450264297, 50.1943897437855 ], [ -5.155649949785303, 50.347183243781956 ], [ -5.039695449885073, 50.495479244115167 ], [ -4.801588950269763, 50.59781674384093 ], [ -4.558500950258576, 50.788257244261096 ], [ -4.545959450168426, 50.928352244111771 ], [ -4.526867950195711, 51.011909744729081 ], [ -4.308520949881872, 50.995063743978839 ], [ -4.213668450038877, 51.056602744531986 ], [ -4.204072449983515, 51.199207744118752 ], [ -3.720778449765583, 51.233093744672701 ], [ -3.5420124500145, 51.232227744306712 ], [ -3.274717949773501, 51.180064744460239 ], [ -3.00328045003272, 51.223942244426944 ], [ -2.992947950187719, 51.320319744492352 ], [ -2.963566449631909, 51.383189744371343 ], [ -2.733964450099219, 51.494342744132105 ], [ -2.666090949737499, 51.63939624421522 ], [ -2.712409949859241, 51.582454244316828 ], [ -3.121302449948068, 51.490513244698619 ], [ -3.169590450039209, 51.406250244823447 ], [ -3.34048194998194, 51.381274744193362 ], [ -3.558955949857132, 51.401328744494158 ], [ -3.63785544966925, 51.469841244676623 ], [ -3.720856449765272, 51.479717744181862 ], [ -3.850816949842333, 51.614581744714769 ], [ -4.06352044980889, 51.557292744102647 ], [ -4.286978950218318, 51.561298744480951 ], [ -4.382687949988839, 51.72815674465064 ], [ -4.68784644985372, 51.721580244442542 ], [ -4.695848950168839, 51.671570244958794 ], [ -5.005501450431542, 51.609375244732476 ], [ -5.15028194955226, 51.703285244320412 ], [ -5.073342950216944, 52.025184744719972 ], [ -4.850558950335249, 52.0221632447765 ], [ -4.731514950054874, 52.117900745002125 ], [ -4.505583449816285, 52.139927244534647 ], [ -4.203601449846979, 52.266647244515177 ], [ -4.05193244962282, 52.481490745229692 ], [ -4.128678949973499, 52.612781244639201 ], [ -4.040633950196591, 52.705570244688154 ], [ -4.347067450402436, 53.113647245098576 ], [ -4.193176450232958, 53.213657245397329 ], [ -3.781867450222586, 53.328171245460815 ], [ -3.613200950363531, 53.290126745593057 ] ] ] ] } },
{ "type": "Feature", "properties": { "ID": "58", "NAME_EN": "Czech Republic", "NAME_FR": "République tchèque", "UE28": "true" }, "geometry": { "type": "MultiPolygon", "coordinates": [ [ [ [ 12.493452312134036, 50.379845973789386 ], [ 12.493162827204673, 49.974253535746897 ], [ 12.260799050036166, 50.058156743963416 ], [ 12.100199054877338, 50.318327742051054 ], [ 12.329077050165781, 50.225339743843548 ], [ 12.493452312134036, 50.379845973789386 ] ] ], [ [ [ 12.493092467281032, 49.848861747123308 ], [ 12.493019982216145, 49.698816433164801 ], [ 12.404265049692352, 49.762312243587175 ], [ 12.493092467281032, 49.848861747123308 ] ] ] ] } },
{ "type": "Feature", "properties": { "ID": "71", "NAME_EN": "United Kingdom", "NAME_FR": null, "UE28": "true" }, "geometry": { "type": "MultiPolygon", "coordinates": [ [ [ [ -6.743346450278395, 57.46522124643846 ], [ -6.389600950023806, 57.543731246293113 ], [ -6.084218449721614, 57.310649746327925 ], [ -5.793298449963456, 57.143718246399615 ], [ -5.829004949918431, 57.107597746230013 ], [ -6.144421449790008, 57.187404246518838 ], [ -6.350479949989677, 57.186572746844689 ], [ -6.483494949732102, 57.31097374688018 ], [ -6.719400450370408, 57.371867746452835 ], [ -6.743346450278395, 57.46522124643846 ], [ -6.743346450278395, 57.46522124643846 ] ] ] ] } },
{ "type": "Feature", "properties": { "ID": "72", "NAME_EN": "United Kingdom", "NAME_FR": null, "UE28": "true" }, "geometry": { "type": "MultiPolygon", "coordinates": [ [ [ [ -7.049304450140196, 58.232589246540542 ], [ -6.951218449571722, 58.229309246367983 ], [ -6.604205950444205, 58.353027746402603 ], [ -6.328266949959692, 58.261787746757328 ], [ -6.358333949751905, 58.039581746503409 ], [ -6.536875449941969, 57.919716246984237 ], [ -7.075134949718105, 57.965736746840399 ], [ -7.135381449993851, 58.127078746208845 ], [ -7.049304450140196, 58.232589246540542 ], [ -7.049304450140196, 58.232589246540542 ] ] ] ] } },
{ "type": "Feature", "properties": { "ID": "73", "NAME_EN": "United Kingdom", "NAME_FR": null, "UE28": "true" }, "geometry": { "type": "MultiPolygon", "coordinates": [ [ [ [ -3.309039949733847, 59.140060746831061 ], [ -3.051439949593933, 59.111034246452867 ], [ -2.99055145028915, 59.000770247247601 ], [ -2.827272949786716, 58.944481246899684 ], [ -2.915309450070986, 58.872291247117026 ], [ -3.003618950354221, 58.948066246748255 ], [ -3.164432949620892, 58.916621746378766 ], [ -3.368161450290634, 58.998829246770477 ], [ -3.309039949733847, 59.140060746831061 ] ] ] ] } },
{ "type": "Feature", "properties": { "ID": "74", "NAME_EN": "United Kingdom", "NAME_FR": null, "UE28": "true" }, "geometry": { "type": "MultiPolygon", "coordinates": [ [ [ [ -6.203525949562893, 56.635219246545326 ], [ -6.060556450319878, 56.634978746246425 ], [ -5.963960450114636, 56.530151245930774 ], [ -6.110516950197035, 56.475315246035137 ], [ -6.291139950148517, 56.524902745811197 ], [ -6.203525949562893, 56.635219246545326 ], [ -6.203525949562893, 56.635219246545326 ] ] ] ] } },
{ "type": "Feature", "properties": { "ID": "75", "NAME_EN": "United Kingdom", "NAME_FR": null, "UE28": "true" }, "geometry": { "type": "MultiPolygon", "coordinates": [ [ [ [ -4.554522950273903, 53.404384745541776 ], [ -4.404903450134038, 53.425632245121939 ], [ -4.292832950380325, 53.411720745700734 ], [ -4.219046949856801, 53.31911424507723 ], [ -4.218560949927854, 53.185653745425327 ], [ -4.358378950428161, 53.131477245359569 ], [ -4.613329949817282, 53.246608245098557 ], [ -4.554522950273903, 53.404384745541776 ] ] ] ] } },
{ "type": "Feature", "properties": { "ID": "83", "NAME_EN": "Denmark", "NAME_FR": null, "UE28": "true" }, "geometry": { "type": "MultiPolygon", "coordinates": [ [ [ [ 10.32295304964356, 55.620533246413075 ], [ 10.768676050259561, 55.383613745710122 ], [ 10.820033049785485, 55.309795245464848 ], [ 10.743594050125349, 55.068771746157466 ], [ 10.516336549891886, 55.026588246076095 ], [ 10.320219050368911, 55.054042245886734 ], [ 10.134392049653407, 55.160995246199853 ], [ 9.939303549918908, 55.217609246252898 ], [ 9.887874549770689, 55.319495745845487 ], [ 9.934154549892638, 55.510509245674477 ], [ 10.32295304964356, 55.620533246413075 ] ] ] ] } },
{ "type": "Feature", "properties": { "ID": "84", "NAME_EN": "Denmark", "NAME_FR": null, "UE28": "true" }, "geometry": { "type": "MultiPolygon", "coordinates": [ [ [ [ 11.716030050446534, 54.873058245419784 ], [ 11.85211654973903, 54.773102245818912 ], [ 11.803792049763329, 54.644717745533747 ], [ 11.560902549912779, 54.659126245390674 ], [ 11.460823050043752, 54.611114245421547 ], [ 11.263240050388058, 54.702014745608409 ], [ 11.079049049574055, 54.847107245672859 ], [ 11.073608549594947, 54.939883746036834 ], [ 11.260850549913012, 54.957229245537384 ], [ 11.547979550216093, 54.828941246105948 ], [ 11.716030050446534, 54.873058245419784 ] ] ] ] } },
{ "type": "Feature", "properties": { "ID": "85", "NAME_EN": "Germany", "NAME_FR": null, "UE28": "true" }, "geometry": { "type": "MultiPolygon", "coordinates": [ [ [ [ 11.066594450073875, 54.535770995905942 ], [ 11.224798450388219, 54.505204495552384 ], [ 11.196337450013333, 54.407561995619112 ], [ 11.009803449969306, 54.484036496041973 ], [ 11.066594450073875, 54.535770995905942 ] ] ] ] } },
{ "type": "Feature", "properties": { "ID": "87", "NAME_EN": "Spain", "NAME_FR": null, "UE28": "true" }, "geometry": { "type": "MultiPolygon", "coordinates": [ [ [ [ 1.389016050150643, 39.078525235467353 ], [ 1.532839050082141, 39.118411735768412 ], [ 1.607708050186429, 39.044758234987356 ], [ 1.474949049658957, 38.913524735431253 ], [ 1.346118550430787, 38.87008623500175 ], [ 1.276340550376116, 38.969936235178025 ], [ 1.389016050150643, 39.078525235467353 ] ] ] ] } },
{ "type": "Feature", "properties": { "ID": "88", "NAME_EN": "Spain", "NAME_FR": null, "UE28": "true" }, "geometry": { "type": "MultiPolygon", "coordinates": [ [ [ [ 2.355750050124752, 39.605590735755968 ], [ 2.55557104956432, 39.700275236037307 ], [ 2.778520549883522, 39.855678735959053 ], [ 2.936094049900533, 39.904689736163789 ], [ 3.086765049967141, 39.870903236583956 ], [ 3.152959050220033, 39.767723235727999 ], [ 3.396839049882314, 39.628357236151764 ], [ 3.229418549926206, 39.359073735656175 ], [ 3.118264050145853, 39.313033735764975 ], [ 2.956790550143811, 39.36280073576075 ], [ 2.787235049757784, 39.363094735829108 ], [ 2.689344050087866, 39.552272735678528 ], [ 2.387098549658393, 39.520782735884225 ], [ 2.355750050124752, 39.605590735755968 ] ] ] ] } },
{ "type": "Feature", "properties": { "ID": "89", "NAME_EN": "Spain", "NAME_FR": null, "UE28": "true" }, "geometry": { "type": "MultiPolygon", "coordinates": [ [ [ [ 3.984166549746533, 40.052276236222461 ], [ 4.165524550317794, 40.062908236399238 ], [ 4.305746049640506, 39.897250736646406 ], [ 4.194557050067831, 39.832996235839929 ], [ 4.0399000496476, 39.914268736343708 ], [ 3.984166549746533, 40.052276236222461 ] ] ] ] } },
{ "type": "Feature", "properties": { "ID": "98", "NAME_EN": "Denmark", "NAME_FR": null, "UE28": "true" }, "geometry": { "type": "MultiPolygon", "coordinates": [ [ [ [ 9.958178549800257, 57.595401246774877 ], [ 10.323255550103633, 57.636272246581029 ], [ 10.429738050270824, 57.598503246832955 ], [ 10.551775845978568, 57.437341290836542 ], [ 10.546919050074157, 57.226135246563672 ], [ 10.442288549876707, 57.170135246050727 ], [ 10.013151049681248, 57.088856246205268 ], [ 9.780249549976812, 57.099922246603491 ], [ 9.248104049762169, 56.991527246348241 ], [ 9.135911049755176, 57.041049746723409 ], [ 8.749382050341415, 56.945869246120637 ], [ 8.468877549759158, 56.781666246111548 ], [ 8.405262049703881, 56.675891746191773 ], [ 8.229629549664029, 56.78544574593662 ], [ 8.361330549964977, 56.958503245982854 ], [ 8.620913549820514, 57.126708746207235 ], [ 8.755191050226815, 57.099415246605389 ], [ 8.969896549885901, 57.156718746076031 ], [ 9.367209550180638, 57.156436746561305 ], [ 9.529520050110252, 57.219272246634446 ], [ 9.79459005029064, 57.47645224635184 ], [ 9.958178549800257, 57.595401246774877 ] ] ] ] } },
{ "type": "Feature", "properties": { "ID": "114", "NAME_EN": "Liechtenstein", "NAME_FR": null, "UE28": "false" }, "geometry": { "type": "MultiPolygon", "coordinates": [ [ [ [ 9.529959549693512, 47.270942742232769 ], [ 9.635016549773979, 47.128132242135798 ], [ 9.607039550135195, 47.060771742004917 ], [ 9.485679550071209, 47.18118274245063 ], [ 9.529959549693512, 47.270942742232769 ] ] ] ] } },
{ "type": "Feature", "properties": { "ID": "143", "NAME_EN": "Netherlands", "NAME_FR": "Pays-Bas", "UE28": "true" }, "geometry": { "type": "MultiPolygon", "coordinates": [ [ [ [ 3.724272049915211, 51.348685744096436 ], [ 4.23487954975144, 51.348213744812838 ], [ 4.014915550412352, 51.245086244632105 ], [ 3.977734049886529, 51.225024743985209 ], [ 3.935971550346839, 51.21188374412192 ], [ 3.886288049753716, 51.200176244715003 ], [ 3.890311550038065, 51.21410724413748 ], [ 3.856369049591989, 51.210922244747721 ], [ 3.820784049844068, 51.209235744315393 ], [ 3.778881550143472, 51.26212774450515 ], [ 3.769320549903518, 51.259838244143992 ], [ 3.589948050062505, 51.305881744172382 ], [ 3.587954549862612, 51.292946244792702 ], [ 3.583378550179985, 51.292270744218527 ], [ 3.562639549775439, 51.295837244114196 ], [ 3.416875550266472, 51.259978744327945 ], [ 3.388168050215365, 51.273040744145355 ], [ 3.380618050083002, 51.274471244463307 ], [ 3.367175049788788, 51.368137244491628 ], [ 3.517569549694995, 51.407806744656703 ], [ 3.724272049915211, 51.348685744096436 ] ] ] ] } },
{ "type": "Feature", "properties": { "ID": "144", "NAME_EN": "Netherlands", "NAME_FR": "Pays-Bas", "UE28": "true" }, "geometry": { "type": "MultiPolygon", "coordinates": [ [ [ [ 4.27951904976436, 51.376106244164745 ], [ 4.200358049584398, 51.406273244085462 ], [ 3.812617550059945, 51.385600746807619 ], [ 3.682644760457651, 51.453951805028453 ], [ 3.640191377944478, 51.443983205886056 ], [ 3.532862523317551, 51.458875965087969 ], [ 3.439502766458245, 51.546707971328914 ], [ 3.557316657992317, 51.595951564665782 ], [ 3.837034612411982, 51.608837868601739 ], [ 3.890069549670052, 51.63149974428817 ], [ 3.794687049667635, 51.696277244897701 ], [ 3.839120550073408, 51.75827524503223 ], [ 3.990828050274335, 51.845169244827993 ], [ 4.071652549825391, 51.978634244694753 ], [ 4.374537550067941, 52.186896744996304 ], [ 4.49383555037042, 52.328263245018469 ], [ 4.610116050015735, 52.573493244982096 ], [ 4.707222050357355, 52.875721244723074 ], [ 4.874352050406855, 52.887274745121339 ], [ 5.165883549586166, 52.999868744777906 ], [ 5.404392049753373, 53.121402244795 ], [ 5.445928549662878, 53.218155245081924 ], [ 5.587325050111018, 53.300517745441589 ], [ 5.885086049681496, 53.385235245585342 ], [ 6.191428550187487, 53.411048245264944 ], [ 6.294420050345082, 53.402111245019292 ], [ 6.834294049930525, 53.462551245247191 ], [ 6.902027550131384, 53.347568745162789 ], [ 7.209258041004469, 53.24378624849394 ], [ 7.212242050230488, 53.011455244899231 ], [ 7.092395549814798, 52.838199744691408 ], [ 7.055564550163923, 52.643757244993573 ], [ 6.70986904971693, 52.627815744587338 ], [ 6.697861049947564, 52.486274244590547 ], [ 7.058575549621992, 52.399162244636564 ], [ 7.065755549778824, 52.241283244855858 ], [ 6.855176049734954, 52.120357244970677 ], [ 6.760448050237357, 52.118579744838406 ], [ 6.828495049606892, 51.964111744975057 ], [ 6.407500049887459, 51.828140244632422 ], [ 6.363350549987958, 51.83546024495341 ], [ 6.348163554540889, 51.850532240534115 ], [ 6.167465050371847, 51.900947745029455 ], [ 6.1259560499318, 51.898330244830952 ], [ 6.117670050032816, 51.901840244818935 ], [ 6.136904550304791, 51.885864244619867 ], [ 6.001163049834934, 51.832317244802681 ], [ 5.96255755019081, 51.837001744994261 ], [ 5.953360549649689, 51.748100744375179 ], [ 5.994984049973993, 51.738094244270975 ], [ 6.03558254979487, 51.717734744271198 ], [ 6.026186555627659, 51.70903422290182 ], [ 6.032620049875447, 51.683849244640257 ], [ 6.036699546452131, 51.67288175394539 ], [ 6.036699550044266, 51.672881744285554 ], [ 6.212214550061501, 51.513625744850629 ], [ 6.214883049912888, 51.434295744935724 ], [ 6.226499549614574, 51.399696244753486 ], [ 6.072570050367574, 51.242587744525224 ], [ 6.073418549926201, 51.182933744565851 ], [ 6.10570155028637, 51.171943744072685 ], [ 6.17698554964346, 51.185109744189532 ], [ 5.979560050056308, 51.071208744505626 ], [ 5.980933050419996, 50.983047743834938 ], [ 6.081700546287785, 50.910026246793159 ], [ 6.020999049966236, 50.754295243799007 ], [ 5.682036549747013, 50.75748824445693 ], [ 5.687694549863637, 50.81208424408868 ], [ 5.810127048889859, 51.117965741597416 ], [ 5.745716050055706, 51.189555244151407 ], [ 5.56623304961562, 51.220855744183808 ], [ 5.237603050140716, 51.261528244737754 ], [ 5.242166050123161, 51.305278744243623 ], [ 5.13168004969458, 51.347027244055951 ], [ 5.102176049784934, 51.42900124449254 ], [ 5.10460105009844, 51.431366244738143 ], [ 5.045759549863373, 51.471092244810734 ], [ 5.010879550251106, 51.472327744230078 ], [ 5.010975050158498, 51.45600474421628 ], [ 4.922977325443092, 51.397324022039498 ], [ 4.903155050365339, 51.413559244637192 ], [ 4.828546049660531, 51.423801744832929 ], [ 4.835170550280736, 51.458804744737186 ], [ 4.748927049943457, 51.496681244954345 ], [ 4.64127454978069, 51.422031744147198 ], [ 4.476069050346442, 51.478156744141081 ], [ 4.395431550425775, 51.435516244562621 ], [ 4.397189049634959, 51.431556744529907 ], [ 4.27951904976436, 51.376106244164745 ] ] ] ] } }
]
}
